%!PS-Adobe-3.0 EPSF-3.0
%%Creator: cairo 1.16.0 (https://cairographics.org)
%%CreationDate: Wed Mar 29 13:04:13 2023
%%Pages: 1
%%DocumentData: Clean7Bit
%%LanguageLevel: 2
%%BoundingBox: 1 0 997 234
%%EndComments
%%BeginProlog
50 dict begin
/q { gsave } bind def
/Q { grestore } bind def
/cm { 6 array astore concat } bind def
/w { setlinewidth } bind def
/J { setlinecap } bind def
/j { setlinejoin } bind def
/M { setmiterlimit } bind def
/d { setdash } bind def
/m { moveto } bind def
/l { lineto } bind def
/c { curveto } bind def
/h { closepath } bind def
/re { exch dup neg 3 1 roll 5 3 roll moveto 0 rlineto
      0 exch rlineto 0 rlineto closepath } bind def
/S { stroke } bind def
/f { fill } bind def
/f* { eofill } bind def
/n { newpath } bind def
/W { clip } bind def
/W* { eoclip } bind def
/BT { } bind def
/ET { } bind def
/BDC { mark 3 1 roll /BDC pdfmark } bind def
/EMC { mark /EMC pdfmark } bind def
/cairo_store_point { /cairo_point_y exch def /cairo_point_x exch def } def
/Tj { show currentpoint cairo_store_point } bind def
/TJ {
  {
    dup
    type /stringtype eq
    { show } { -0.001 mul 0 cairo_font_matrix dtransform rmoveto } ifelse
  } forall
  currentpoint cairo_store_point
} bind def
/cairo_selectfont { cairo_font_matrix aload pop pop pop 0 0 6 array astore
    cairo_font exch selectfont cairo_point_x cairo_point_y moveto } bind def
/Tf { pop /cairo_font exch def /cairo_font_matrix where
      { pop cairo_selectfont } if } bind def
/Td { matrix translate cairo_font_matrix matrix concatmatrix dup
      /cairo_font_matrix exch def dup 4 get exch 5 get cairo_store_point
      /cairo_font where { pop cairo_selectfont } if } bind def
/Tm { 2 copy 8 2 roll 6 array astore /cairo_font_matrix exch def
      cairo_store_point /cairo_font where { pop cairo_selectfont } if } bind def
/g { setgray } bind def
/rg { setrgbcolor } bind def
/d1 { setcachedevice } bind def
/cairo_data_source {
  CairoDataIndex CairoData length lt
    { CairoData CairoDataIndex get /CairoDataIndex CairoDataIndex 1 add def }
    { () } ifelse
} def
/cairo_flush_ascii85_file { cairo_ascii85_file status { cairo_ascii85_file flushfile } if } def
/cairo_image { image cairo_flush_ascii85_file } def
/cairo_imagemask { imagemask cairo_flush_ascii85_file } def
%%EndProlog
%%BeginSetup
%%EndSetup
%%Page: 1 1
%%BeginPageSetup
%%PageBoundingBox: 1 0 997 234
%%EndPageSetup
q 1 0 996 234 rectclip
1 0 0 -1 0 234 cm q
1 g
732.68 15.402 m 736.895 15.402 740.309 19.855 740.309 25.352 c 740.309 
208.539 l 740.309 214.035 736.895 218.492 732.68 218.492 c 728.465 218.492
 725.047 214.035 725.047 208.539 c 725.047 25.352 l 725.047 19.855 728.465
 15.402 732.68 15.402 c h
732.68 15.402 m f
Q q
1.805 32.324 683.289 169.242 re W n
1 g
89.953 122.562 m 89.953 129.82 88.902 136.434 86.793 142.402 c 84.688 148.371
 81.703 153.465 77.84 157.676 c 73.977 161.891 69.332 165.168 63.902 167.508
 c 58.445 169.848 52.441 171.02 45.887 171.02 c 39.332 171.02 33.363 169.848
 27.98 167.508 c 22.598 165.168 17.973 161.891 14.109 157.676 c 10.25 153.465
 7.242 148.371 5.086 142.402 c 2.91 136.434 1.82 129.82 1.82 122.562 c 1.82
 115.309 2.91 108.719 5.086 102.797 c 7.242 96.898 10.285 91.84 14.215 87.629
 c 18.125 83.414 22.773 80.16 28.156 77.867 c 33.539 75.594 39.449 74.461
 45.887 74.461 c 52.324 74.461 58.27 75.594 63.727 77.867 c 69.156 80.16
 73.801 83.414 77.664 87.629 c 81.527 91.84 84.547 96.898 86.723 102.797
 c 88.879 108.719 89.953 115.309 89.953 122.562 c h
68.184 122.562 m 68.184 113.434 66.23 106.203 62.32 100.863 c 58.387 95.551
 52.91 92.895 45.887 92.895 c 38.867 92.895 33.398 95.551 29.492 100.863
 c 25.559 106.203 23.59 113.434 23.59 122.562 c 23.59 131.812 25.559 139.125
 29.492 144.508 c 33.398 149.895 38.867 152.586 45.887 152.586 c 52.91 152.586
 58.387 149.895 62.32 144.508 c 66.23 139.125 68.184 131.812 68.184 122.562
 c h
118.922 46.898 m 139.461 46.898 l 142.039 51.344 144.906 56.785 148.066
 63.223 c 151.227 69.66 154.445 76.414 157.723 83.484 c 161 90.578 164.242
 97.785 167.449 105.113 c 170.676 112.418 173.641 119.172 176.332 125.375
 c 179.023 119.172 181.949 112.418 185.109 105.113 c 188.27 97.785 191.488
 90.578 194.766 83.484 c 198.043 76.414 201.262 69.66 204.422 63.223 c 207.582
 56.785 210.449 51.344 213.023 46.898 c 233.039 46.898 l 234.09 55.793 235.086
 65.238 236.023 75.234 c 236.957 85.25 237.801 95.504 238.551 105.992 c 
239.324 116.453 240.023 126.977 240.656 137.559 c 241.312 148.16 241.875
 158.496 242.344 168.562 c 220.574 168.562 l 220.105 154.398 219.543 139.828
 218.887 124.848 c 218.254 109.867 217.297 95.352 216.008 81.309 c 214.719
 84 213.199 87.219 211.441 90.965 c 209.688 94.707 207.816 98.77 205.824
 103.148 c 203.836 107.547 201.812 112.09 199.75 116.77 c 197.715 121.453
 195.727 125.98 193.781 130.359 c 191.863 134.762 190.082 138.855 188.445
 142.648 c 186.805 146.465 185.402 149.719 184.23 152.41 c 167.727 152.41
 l 166.559 149.719 165.152 146.441 163.516 142.578 c 161.875 138.715 160.086
 134.586 158.141 130.184 c 156.223 125.805 154.234 121.277 152.172 116.594
 c 150.137 111.914 148.125 107.406 146.133 103.078 c 144.145 98.746 142.273
 94.672 140.516 90.859 c 138.762 87.066 137.238 83.883 135.953 81.309 c 
134.664 95.352 133.691 109.867 133.039 124.848 c 132.406 139.828 131.855
 154.398 131.387 168.562 c 109.617 168.562 l 110.086 158.496 110.637 148.078
 111.266 137.312 c 111.922 126.543 112.625 115.859 113.375 105.254 c 114.148
 94.672 115 84.41 115.938 74.461 c 116.875 64.512 117.867 55.324 118.922
 46.898 c h
299.363 153.641 m 305.918 153.641 310.895 153.289 314.289 152.586 c 314.289
 129.059 l 313.117 128.707 311.422 128.359 309.195 128.008 c 306.996 127.656
 304.539 127.48 301.824 127.48 c 299.48 127.48 297.117 127.656 294.73 128.008
 c 292.344 128.359 290.176 129 288.234 129.938 c 286.293 130.875 284.734
 132.184 283.562 133.871 c 282.395 135.578 281.809 137.723 281.809 140.297
 c 281.809 145.328 283.402 148.805 286.582 150.723 c 289.719 152.668 293.98
 153.641 299.363 153.641 c h
297.609 74.461 m 304.633 74.461 310.543 75.34 315.34 77.094 c 320.164 78.848
 324.004 81.309 326.859 84.469 c 329.715 87.629 331.762 91.453 333.004 95.949
 c 334.242 100.469 334.863 105.418 334.863 110.801 c 334.863 166.453 l 331.562
 167.156 326.613 168.012 320.012 169.02 c 313.387 170 305.918 170.492 297.609
 170.492 c 292.133 170.492 287.098 169.965 282.512 168.914 c 277.945 167.859
 274.059 166.164 270.855 163.82 c 267.625 161.48 265.105 158.438 263.305
 154.691 c 261.48 150.945 260.566 146.324 260.566 140.824 c 260.566 135.555
 261.594 131.109 263.656 127.48 c 265.691 123.852 268.465 120.891 271.977
 118.598 c 275.488 116.324 279.562 114.688 284.195 113.68 c 288.832 112.699
 293.652 112.207 298.664 112.207 c 301.004 112.207 303.473 112.348 306.07
 112.629 c 308.621 112.934 311.363 113.434 314.289 114.137 c 314.289 110.625
 l 314.289 108.168 313.996 105.828 313.41 103.605 c 312.824 101.379 311.805
 99.414 310.355 97.703 c 308.879 96.02 306.949 94.707 304.562 93.773 c 302.152
 92.836 299.141 92.367 295.539 92.367 c 290.598 92.367 286.082 92.719 281.984
 93.422 c 277.887 94.125 274.551 94.941 271.977 95.879 c 269.344 78.672 
l 272.059 77.738 275.98 76.801 281.105 75.863 c 286.258 74.93 291.758 74.461
 297.609 74.461 c h
382.23 76.742 m 382.23 168.562 l 360.988 168.562 l 360.988 76.742 l h
384.512 49.883 m 384.512 53.859 383.227 57.02 380.648 59.363 c 378.074 
61.703 375.031 62.875 371.52 62.875 c 367.895 62.875 364.793 61.703 362.215
 59.363 c 359.641 57.02 358.355 53.859 358.355 49.883 c 358.355 45.785 359.641
 42.566 362.215 40.227 c 364.793 37.883 367.895 36.715 371.52 36.715 c 375.031
 36.715 378.074 37.883 380.648 40.227 c 383.227 42.566 384.512 45.785 384.512
 49.883 c h
444.203 152.762 m 441.219 170.316 l 434.898 170.199 429.656 169.496 425.488
 168.211 c 421.344 166.922 418.047 165.074 415.586 162.664 c 413.129 160.273
 411.41 157.289 410.426 153.711 c 409.418 150.152 408.914 146.09 408.914
 141.523 c 408.914 35.836 l 430.16 32.324 l 430.16 137.488 l 430.16 140.062
 430.359 142.227 430.754 143.984 c 431.176 145.738 431.914 147.227 432.969
 148.441 c 434.02 149.684 435.461 150.621 437.285 151.25 c 439.09 151.906
 441.395 152.41 444.203 152.762 c h
478.086 120.281 m 478.086 129.293 480.043 135.871 483.949 140.016 c 487.883
 144.184 492.953 146.266 499.156 146.266 c 502.551 146.266 505.734 145.797
 508.707 144.859 c 511.703 143.926 514.137 142.812 516.008 141.523 c 516.008
 93.949 l 514.488 93.598 512.613 93.27 510.391 92.965 c 508.168 92.684 505.359
 92.543 501.965 92.543 c 494.238 92.543 488.328 95.082 484.23 100.164 c 
480.137 105.266 478.086 111.973 478.086 120.281 c h
537.25 79.727 m 537.25 159.258 l 537.25 173.887 533.531 184.598 526.086
 191.383 c 518.664 198.172 507.289 201.566 491.957 201.566 c 486.34 201.566
 480.859 201.098 475.523 200.164 c 470.211 199.227 465.387 197.996 461.059
 196.477 c 464.922 178.395 l 468.547 179.914 472.668 181.145 477.281 182.078
 c 481.914 183.016 486.926 183.484 492.309 183.484 c 500.852 183.484 506.938
 181.73 510.566 178.219 c 514.195 174.707 516.008 169.496 516.008 162.594
 c 516.008 159.082 l 513.902 160.133 511.117 161.188 507.652 162.242 c 504.211
 163.293 500.266 163.82 495.82 163.82 c 489.969 163.82 484.605 162.887 479.738
 161.012 c 474.891 159.141 470.738 156.391 467.273 152.762 c 463.832 149.133
 461.141 144.59 459.195 139.137 c 457.277 133.707 456.316 127.422 456.316
 120.281 c 456.316 113.609 457.336 107.465 459.371 101.848 c 461.434 96.23
 464.418 91.43 468.324 87.453 c 472.258 83.473 477.035 80.371 482.652 78.148
 c 488.27 75.922 494.648 74.812 501.789 74.812 c 508.695 74.812 515.25 75.34
 521.453 76.391 c 527.656 77.445 532.922 78.559 537.25 79.727 c h
619.062 110.801 m 616.371 121.102 613.469 131.133 610.355 140.895 c 607.266
 150.676 604.199 159.902 601.156 168.562 c 583.777 168.562 l 581.434 163.176
 578.977 157.031 576.402 150.129 c 573.828 143.223 571.254 135.848 568.676
 128.008 c 566.102 120.164 563.527 111.914 560.953 103.254 c 558.379 94.59
 555.863 85.754 553.402 76.742 c 575.875 76.742 l 576.93 81.66 578.156 86.949
 579.562 92.613 c 580.969 98.301 582.43 104.094 583.953 109.992 c 585.473
 115.918 587.055 121.688 588.691 127.305 c 590.332 132.922 591.969 138.074
 593.605 142.754 c 595.363 137.371 597.082 131.812 598.77 126.074 c 600.477
 120.34 602.094 114.605 603.613 108.871 c 605.137 103.137 606.562 97.539
 607.898 92.086 c 609.258 86.656 610.461 81.543 611.516 76.742 c 627.844
 76.742 l 628.895 81.543 630.066 86.656 631.352 92.086 c 632.641 97.539 
634.012 103.137 635.461 108.871 c 636.938 114.605 638.516 120.34 640.203
 126.074 c 641.91 131.812 643.645 137.371 645.398 142.754 c 646.918 138.074
 648.5 132.922 650.137 127.305 c 651.777 121.688 653.379 115.918 654.949
 109.992 c 656.539 104.094 658.039 98.301 659.441 92.613 c 660.848 86.949
 662.078 81.66 663.129 76.742 c 685.074 76.742 l 682.617 85.754 680.102 
94.59 677.527 103.254 c 674.953 111.914 672.375 120.164 669.801 128.008 
c 667.227 135.848 664.652 143.223 662.078 150.129 c 659.5 157.031 656.984
 163.176 654.527 168.562 c 637.324 168.562 l 634.281 159.902 631.145 150.676
 627.914 140.895 c 624.707 131.133 621.758 121.102 619.062 110.801 c h
619.062 110.801 m f
Q q
780.262 0 216.719 233.895 re W n
1 g
996.93 117.75 m 996.859 118.316 996.738 118.875 996.516 119.406 c 996.516
 119.41 996.516 119.414 996.516 119.418 c 996.508 119.43 996.496 119.441
 996.492 119.457 c 996.277 119.957 995.984 120.422 995.645 120.867 c 995.551
 120.984 995.461 121.098 995.363 121.211 c 995.273 121.309 995.207 121.422
 995.113 121.516 c 947.133 169.5 l 945.867 170.762 944.211 171.395 942.555
 171.395 c 940.898 171.395 939.242 170.762 937.98 169.5 c 935.453 166.973
 935.453 162.879 937.98 160.352 c 974.918 123.414 l 836.188 123.414 l 832.613
 123.414 829.719 120.52 829.719 116.945 c 829.719 113.371 832.613 110.473
 836.188 110.473 c 974.922 110.473 l 937.984 73.539 l 935.457 71.012 935.457
 66.914 937.984 64.391 c 940.508 61.863 944.605 61.863 947.133 64.391 c 
995.113 112.367 l 995.531 112.789 995.855 113.262 996.133 113.75 c 996.199
 113.871 996.262 113.984 996.32 114.109 c 996.566 114.605 996.762 115.121
 996.871 115.652 c 996.875 115.664 996.879 115.676 996.883 115.684 c 996.988
 116.234 997 116.797 996.969 117.352 c 996.961 117.488 996.945 117.617 996.93
 117.75 c h
884.645 220.953 m 823.559 220.953 l 806.82 220.953 793.203 207.332 793.203
 190.594 c 793.203 43.297 l 793.203 26.555 806.824 12.941 823.559 12.941
 c 885.645 12.941 l 889.219 12.941 892.113 10.043 892.113 6.469 c 892.113
 2.895 889.219 0 885.645 0 c 823.559 0 l 799.684 0 780.262 19.422 780.262
 43.297 c 780.262 190.598 l 780.262 214.473 799.684 233.895 823.559 233.895
 c 884.645 233.895 l 888.219 233.895 891.113 230.996 891.113 227.422 c 891.113
 223.848 888.219 220.953 884.645 220.953 c h
884.645 220.953 m f
Q Q
showpage
%%Trailer
end
%%EOF
