%!PS-Adobe-3.0 EPSF-3.0
%%Creator: cairo 1.16.0 (https://cairographics.org)
%%CreationDate: Wed Mar 29 13:04:13 2023
%%Pages: 1
%%DocumentData: Clean7Bit
%%LanguageLevel: 2
%%BoundingBox: 0 0 1000 1000
%%EndComments
%%BeginProlog
50 dict begin
/q { gsave } bind def
/Q { grestore } bind def
/cm { 6 array astore concat } bind def
/w { setlinewidth } bind def
/J { setlinecap } bind def
/j { setlinejoin } bind def
/M { setmiterlimit } bind def
/d { setdash } bind def
/m { moveto } bind def
/l { lineto } bind def
/c { curveto } bind def
/h { closepath } bind def
/re { exch dup neg 3 1 roll 5 3 roll moveto 0 rlineto
      0 exch rlineto 0 rlineto closepath } bind def
/S { stroke } bind def
/f { fill } bind def
/f* { eofill } bind def
/n { newpath } bind def
/W { clip } bind def
/W* { eoclip } bind def
/BT { } bind def
/ET { } bind def
/BDC { mark 3 1 roll /BDC pdfmark } bind def
/EMC { mark /EMC pdfmark } bind def
/cairo_store_point { /cairo_point_y exch def /cairo_point_x exch def } def
/Tj { show currentpoint cairo_store_point } bind def
/TJ {
  {
    dup
    type /stringtype eq
    { show } { -0.001 mul 0 cairo_font_matrix dtransform rmoveto } ifelse
  } forall
  currentpoint cairo_store_point
} bind def
/cairo_selectfont { cairo_font_matrix aload pop pop pop 0 0 6 array astore
    cairo_font exch selectfont cairo_point_x cairo_point_y moveto } bind def
/Tf { pop /cairo_font exch def /cairo_font_matrix where
      { pop cairo_selectfont } if } bind def
/Td { matrix translate cairo_font_matrix matrix concatmatrix dup
      /cairo_font_matrix exch def dup 4 get exch 5 get cairo_store_point
      /cairo_font where { pop cairo_selectfont } if } bind def
/Tm { 2 copy 8 2 roll 6 array astore /cairo_font_matrix exch def
      cairo_store_point /cairo_font where { pop cairo_selectfont } if } bind def
/g { setgray } bind def
/rg { setrgbcolor } bind def
/d1 { setcachedevice } bind def
/cairo_data_source {
  CairoDataIndex CairoData length lt
    { CairoData CairoDataIndex get /CairoDataIndex CairoDataIndex 1 add def }
    { () } ifelse
} def
/cairo_flush_ascii85_file { cairo_ascii85_file status { cairo_ascii85_file flushfile } if } def
/cairo_image { image cairo_flush_ascii85_file } def
/cairo_imagemask { imagemask cairo_flush_ascii85_file } def
%%EndProlog
%%BeginSetup
%%EndSetup
%%Page: 1 1
%%BeginPageSetup
%%PageBoundingBox: 0 0 1000 1000
%%EndPageSetup
q 0 0 1000 1000 rectclip
1 0 0 -1 0 1000 cm q
1 g
0 0 1000 1000 rectfill
0 g
662.875 428.879 m 665.824 428.879 668.215 432 668.215 435.848 c 668.215
 564.078 l 668.215 567.926 665.824 571.043 662.875 571.043 c 659.926 571.043
 657.531 567.926 657.531 564.078 c 657.531 435.848 l 657.531 432 659.926
 428.879 662.875 428.879 c h
662.875 428.879 m f
Q q
151.262 440.727 478.301 118.469 re W n
0 g
212.969 503.895 m 212.969 508.973 212.23 513.605 210.754 517.781 c 209.281
 521.961 207.191 525.523 204.488 528.473 c 201.785 531.422 198.531 533.719
 194.73 535.355 c 190.914 536.996 186.711 537.812 182.121 537.812 c 177.535
 537.812 173.355 536.996 169.586 535.355 c 165.816 533.719 162.582 531.422
 159.879 528.473 c 157.176 525.523 155.07 521.961 153.562 517.781 c 152.039
 513.605 151.273 508.973 151.273 503.895 c 151.273 498.816 152.039 494.203
 153.562 490.059 c 155.07 485.93 157.199 482.387 159.953 479.438 c 162.688
 476.488 165.941 474.211 169.711 472.605 c 173.477 471.016 177.617 470.223
 182.121 470.223 c 186.629 470.223 190.789 471.016 194.609 472.605 c 198.41
 474.211 201.66 476.488 204.367 479.438 c 207.07 482.387 209.184 485.93 
210.707 490.059 c 212.215 494.203 212.969 498.816 212.969 503.895 c h
197.73 503.895 m 197.73 497.504 196.359 492.441 193.625 488.707 c 190.871
 484.984 187.039 483.125 182.121 483.125 c 177.207 483.125 173.379 484.984
 170.645 488.707 c 167.891 492.441 166.516 497.504 166.516 503.895 c 166.516
 510.367 167.891 515.488 170.645 519.258 c 173.379 523.027 177.207 524.91
 182.121 524.91 c 187.039 524.91 190.871 523.027 193.625 519.258 c 196.359
 515.488 197.73 510.367 197.73 503.895 c h
233.246 450.93 m 247.625 450.93 l 249.426 454.043 251.434 457.852 253.645
 462.355 c 255.859 466.863 258.109 471.59 260.406 476.539 c 262.699 481.504
 264.969 486.551 267.215 491.68 c 269.473 496.793 271.547 501.52 273.43 
505.859 c 275.316 501.52 277.363 496.793 279.578 491.68 c 281.789 486.551
 284.043 481.504 286.336 476.539 c 288.629 471.59 290.883 466.863 293.094
 462.355 c 295.309 457.852 297.312 454.043 299.117 450.93 c 313.125 450.93
 l 313.863 457.156 314.559 463.766 315.215 470.762 c 315.871 477.777 316.461
 484.953 316.984 492.293 c 317.527 499.617 318.016 506.984 318.461 514.391
 c 318.918 521.812 319.312 529.047 319.641 536.094 c 304.402 536.094 l 304.074
 526.18 303.68 515.98 303.223 505.492 c 302.777 495.004 302.105 484.848 
301.207 475.016 c 300.305 476.898 299.238 479.152 298.012 481.773 c 296.781
 484.395 295.469 487.238 294.078 490.305 c 292.684 493.383 291.266 496.562
 289.824 499.84 c 288.398 503.117 287.008 506.289 285.648 509.352 c 284.305
 512.434 283.059 515.301 281.91 517.953 c 280.766 520.625 279.781 522.902
 278.961 524.785 c 267.41 524.785 l 266.59 522.902 265.605 520.609 264.461
 517.906 c 263.312 515.203 262.059 512.309 260.699 509.23 c 259.355 506.164
 257.965 502.992 256.52 499.715 c 255.098 496.438 253.688 493.285 252.293
 490.254 c 250.902 487.223 249.59 484.371 248.359 481.699 c 247.133 479.047
 246.066 476.816 245.168 475.016 c 244.266 484.848 243.586 495.004 243.125
 505.492 c 242.684 515.98 242.297 526.18 241.973 536.094 c 226.73 536.094
 l 227.059 529.047 227.445 521.754 227.887 514.219 c 228.348 506.68 228.836
 499.199 229.363 491.777 c 229.902 484.371 230.5 477.188 231.156 470.223
 c 231.812 463.258 232.508 456.828 233.246 450.93 c h
359.555 525.648 m 364.145 525.648 367.625 525.402 370 524.91 c 370 508.441
 l 369.184 508.195 367.992 507.949 366.438 507.703 c 364.898 507.457 363.176
 507.336 361.277 507.336 c 359.637 507.336 357.98 507.457 356.312 507.703
 c 354.641 507.949 353.125 508.402 351.766 509.055 c 350.402 509.711 349.312
 510.629 348.496 511.809 c 347.676 513.004 347.266 514.504 347.266 516.309
 c 347.266 519.832 348.379 522.262 350.609 523.605 c 352.805 524.969 355.785
 525.648 359.555 525.648 c h
358.328 470.223 m 363.242 470.223 367.379 470.836 370.738 472.066 c 374.113
 473.293 376.801 475.016 378.801 477.227 c 380.801 479.438 382.234 482.117
 383.102 485.266 c 383.969 488.426 384.406 491.891 384.406 495.66 c 384.406
 534.617 l 382.094 535.109 378.629 535.707 374.008 536.414 c 369.371 537.102
 364.145 537.445 358.328 537.445 c 354.492 537.445 350.969 537.078 347.758
 536.34 c 344.562 535.602 341.844 534.414 339.598 532.773 c 337.336 531.137
 335.574 529.008 334.312 526.383 c 333.035 523.762 332.395 520.527 332.395
 516.676 c 332.395 512.988 333.117 509.875 334.559 507.336 c 335.984 504.797
 337.926 502.723 340.383 501.117 c 342.844 499.527 345.691 498.383 348.938
 497.676 c 352.184 496.988 355.559 496.645 359.062 496.645 c 360.703 496.645
 362.43 496.742 364.25 496.938 c 366.035 497.152 367.953 497.504 370 497.996
 c 370 495.539 l 370 493.816 369.797 492.18 369.387 490.621 c 368.977 489.066
 368.266 487.688 367.25 486.492 c 366.215 485.312 364.863 484.395 363.191
 483.742 c 361.504 483.086 359.398 482.758 356.875 482.758 c 353.418 482.758
 350.258 483.004 347.391 483.496 c 344.52 483.984 342.188 484.559 340.383
 485.215 c 338.539 473.172 l 340.441 472.516 343.188 471.859 346.773 471.207
 c 350.379 470.551 354.23 470.223 358.328 470.223 c h
417.562 471.82 m 417.562 536.094 l 402.691 536.094 l 402.691 471.82 l h
419.16 453.016 m 419.16 455.801 418.258 458.016 416.457 459.652 c 414.652
 461.293 412.523 462.109 410.066 462.109 c 407.523 462.109 405.355 461.293
 403.551 459.652 c 401.75 458.016 400.848 455.801 400.848 453.016 c 400.848
 450.148 401.75 447.895 403.551 446.258 c 405.355 444.621 407.523 443.801
 410.066 443.801 c 412.523 443.801 414.652 444.621 416.457 446.258 c 418.258
 447.895 419.16 450.148 419.16 453.016 c h
460.941 525.031 m 458.852 537.32 l 454.43 537.238 450.758 536.75 447.844
 535.848 c 444.941 534.945 442.633 533.652 440.91 531.965 c 439.191 530.293
 437.984 528.203 437.297 525.695 c 436.594 523.207 436.242 520.363 436.242
 517.168 c 436.242 443.184 l 451.109 440.727 l 451.109 514.34 l 451.109 
516.145 451.25 517.66 451.527 518.887 c 451.824 520.117 452.34 521.156 453.078
 522.008 c 453.816 522.879 454.824 523.535 456.102 523.977 c 457.363 524.434
 458.977 524.785 460.941 525.031 c h
484.66 502.297 m 484.66 508.605 486.031 513.211 488.766 516.109 c 491.52
 519.027 495.066 520.484 499.41 520.484 c 501.785 520.484 504.012 520.156
 506.094 519.504 c 508.191 518.848 509.895 518.07 511.207 517.168 c 511.207
 483.863 l 510.141 483.617 508.832 483.387 507.273 483.176 c 505.719 482.977
 503.75 482.879 501.375 482.879 c 495.969 482.879 491.828 484.656 488.961
 488.215 c 486.094 491.785 484.66 496.48 484.66 502.297 c h
526.078 473.91 m 526.078 529.578 l 526.078 539.82 523.473 547.316 518.262
 552.07 c 513.066 556.82 505.102 559.195 494.371 559.195 c 490.438 559.195
 486.602 558.871 482.867 558.215 c 479.148 557.559 475.773 556.699 472.742
 555.633 c 475.445 542.977 l 477.984 544.039 480.867 544.902 484.098 545.555
 c 487.34 546.211 490.848 546.539 494.617 546.539 c 500.598 546.539 504.855
 545.309 507.398 542.852 c 509.938 540.395 511.207 536.75 511.207 531.914
 c 511.207 529.457 l 509.73 530.195 507.781 530.93 505.355 531.668 c 502.949
 532.406 500.188 532.773 497.074 532.773 c 492.977 532.773 489.227 532.121
 485.816 530.809 c 482.426 529.496 479.516 527.574 477.09 525.031 c 474.684
 522.492 472.797 519.312 471.438 515.496 c 470.094 511.695 469.422 507.297
 469.422 502.297 c 469.422 497.629 470.137 493.324 471.562 489.395 c 473.004
 485.461 475.094 482.102 477.828 479.316 c 480.582 476.531 483.922 474.359
 487.855 472.805 c 491.789 471.246 496.254 470.469 501.25 470.469 c 506.086
 470.469 510.672 470.836 515.016 471.574 c 519.359 472.312 523.047 473.09
 526.078 473.91 c h
583.344 495.66 m 581.461 502.871 579.43 509.891 577.25 516.727 c 575.086
 523.574 572.941 530.031 570.809 536.094 c 558.645 536.094 l 557.004 532.324
 555.285 528.023 553.48 523.188 c 551.68 518.355 549.875 513.195 548.074
 507.703 c 546.273 502.215 544.469 496.438 542.668 490.375 c 540.863 484.312
 539.102 478.129 537.383 471.82 c 553.113 471.82 l 553.852 475.262 554.711
 478.965 555.695 482.93 c 556.676 486.91 557.699 490.965 558.766 495.098
 c 559.832 499.242 560.938 503.281 562.086 507.215 c 563.23 511.145 564.379
 514.75 565.523 518.027 c 566.754 514.258 567.957 510.367 569.137 506.352
 c 570.336 502.34 571.465 498.324 572.531 494.309 c 573.594 490.293 574.594
 486.379 575.527 482.562 c 576.48 478.758 577.324 475.18 578.059 471.82 
c 589.488 471.82 l 590.227 475.18 591.047 478.758 591.949 482.562 c 592.848
 486.379 593.809 490.293 594.824 494.309 c 595.855 498.324 596.961 502.34
 598.141 506.352 c 599.336 510.367 600.551 514.258 601.777 518.027 c 602.844
 514.75 603.949 511.145 605.098 507.215 c 606.242 503.281 607.367 499.242
 608.465 495.098 c 609.578 490.965 610.629 486.91 611.609 482.93 c 612.594
 478.965 613.453 475.262 614.191 471.82 c 629.555 471.82 l 627.832 478.129
 626.07 484.312 624.27 490.375 c 622.465 496.438 620.664 502.215 618.859
 507.703 c 617.059 513.195 615.258 518.355 613.453 523.188 c 611.652 528.023
 609.891 532.324 608.168 536.094 c 596.125 536.094 l 593.996 530.031 591.801
 523.574 589.539 516.727 c 587.293 509.891 585.23 502.871 583.344 495.66
 c h
583.344 495.66 m f
Q q
696.184 418.102 151.703 163.727 re W n
0 g
847.852 500.527 m 847.801 500.922 847.719 501.312 847.562 501.684 c 847.562
 501.688 847.562 501.691 847.559 501.691 c 847.555 501.703 847.547 501.707
 847.543 501.719 c 847.395 502.07 847.188 502.395 846.949 502.707 c 846.887
 502.789 846.824 502.867 846.754 502.945 c 846.691 503.016 846.645 503.094
 846.578 503.16 c 812.992 536.75 l 812.109 537.633 810.949 538.078 809.789
 538.078 c 808.629 538.078 807.469 537.633 806.586 536.75 c 804.816 534.98
 804.816 532.113 806.586 530.348 c 832.441 504.492 l 735.332 504.492 l 732.828
 504.492 730.801 502.465 730.801 499.961 c 730.801 497.461 732.828 495.434
 735.332 495.434 c 832.445 495.434 l 806.59 469.574 l 804.82 467.809 804.82
 464.941 806.59 463.172 c 808.355 461.402 811.223 461.402 812.992 463.172
 c 846.578 496.758 l 846.871 497.051 847.098 497.383 847.293 497.727 c 847.34
 497.809 847.383 497.891 847.426 497.977 c 847.598 498.324 847.734 498.684
 847.809 499.055 c 847.812 499.066 847.812 499.074 847.816 499.078 c 847.895
 499.465 847.898 499.855 847.875 500.246 c 847.871 500.344 847.863 500.434
 847.852 500.527 c h
769.25 572.766 m 726.492 572.766 l 714.773 572.766 705.242 563.234 705.242
 551.516 c 705.242 448.406 l 705.242 436.688 714.777 427.16 726.492 427.16
 c 769.949 427.16 l 772.453 427.16 774.48 425.133 774.48 422.629 c 774.48
 420.129 772.453 418.102 769.949 418.102 c 726.492 418.102 l 709.777 418.102
 696.184 431.695 696.184 448.406 c 696.184 551.52 l 696.184 568.23 709.777
 581.824 726.492 581.824 c 769.25 581.824 l 771.754 581.824 773.781 579.797
 773.781 577.297 c 773.781 574.793 771.754 572.766 769.25 572.766 c h
769.25 572.766 m f
Q Q
showpage
%%Trailer
end
%%EOF
